<?xml version="1.0" encoding="utf-8"?>
<!-- Generator: Adobe Illustrator 18.0.0, SVG Export Plug-In . SVG Version: 6.00 Build 0)  -->
<!DOCTYPE svg PUBLIC "-//W3C//DTD SVG 1.1//EN" "http://www.w3.org/Graphics/SVG/1.1/DTD/svg11.dtd">
<svg version="1.1" id="Layer_1" xmlns="http://www.w3.org/2000/svg" xmlns:xlink="http://www.w3.org/1999/xlink" x="0px" y="0px"
	 viewBox="0 0 90 90" enable-background="new 0 0 90 90" xml:space="preserve">
<g>
	<rect x="4" y="25" fill="#333333" width="82" height="62"/>
	<rect x="4" y="4" fill="#333333" width="82" height="20"/>
	<ellipse fill="none" stroke="#FFFFFF" stroke-width="3" stroke-miterlimit="10" cx="57.3" cy="13.9" rx="5.2" ry="5.2"/>
	<ellipse fill="none" stroke="#FFFFFF" stroke-width="3" stroke-miterlimit="10" cx="74.5" cy="13.9" rx="5.2" ry="5.2"/>
	<g>
		<ellipse fill="none" stroke="#FFFFFF" stroke-width="3" stroke-miterlimit="10" cx="46.9" cy="54.7" rx="23.4" ry="23.3"/>
		<g>
			<defs>
				<ellipse id="SVGID_1_" cx="46.9" cy="54.7" rx="23.9" ry="23.9"/>
			</defs>
			<clipPath id="SVGID_2_">
				<use xlink:href="#SVGID_1_"  overflow="visible"/>
			</clipPath>
			<g clip-path="url(#SVGID_2_)">
				<path fill="none" stroke="#FFFFFF" stroke-width="3" stroke-miterlimit="10" d="M7.2,54.2c2.3,0,2.3,6,4.5,6c2.3,0,2.3-6,4.5-6
					c2.3,0,2.3,6,4.5,6c2.3,0,2.3-6,4.5-6c2.3,0,2.3,6,4.5,6c2.3,0,2.3-6,4.5-6c2.3,0,2.3,6,4.5,6c2.3,0,2.3-6,4.5-6
					c2.3,0,2.3,6,4.5,6c2.3,0,2.3-6,4.5-6c2.3,0,2.3,6,4.5,6c2.3,0,2.3-6,4.5-6c2.3,0,2.3,6,4.5,6c2.3,0,2.3-6,4.5-6s2.3,6,4.5,6
					c2.3,0,2.3-6,4.5-6c2.3,0,2.3,6,4.5,6c2.3,0,2.3-6,4.5-6c2.3,0,2.3,6,4.5,6c2.3,0,2.3-6,4.5-6s2.3,6,4.5,6"/>
			</g>
		</g>
	</g>
	<line fill="none" stroke="#FFFFFF" stroke-width="2" stroke-miterlimit="10" x1="85.7" y1="24.4" x2="4.3" y2="24.4"/>
</g>
</svg>
