<?xml version="1.0" encoding="utf-8"?>
<!-- Generator: Adobe Illustrator 18.0.0, SVG Export Plug-In . SVG Version: 6.00 Build 0)  -->
<!DOCTYPE svg PUBLIC "-//W3C//DTD SVG 1.1//EN" "http://www.w3.org/Graphics/SVG/1.1/DTD/svg11.dtd">
<svg version="1.1" id="Layer_12" xmlns="http://www.w3.org/2000/svg" xmlns:xlink="http://www.w3.org/1999/xlink" x="0px" y="0px"
	 viewBox="0 0 310 666" enable-background="new 0 0 310 666" xml:space="preserve">
<path opacity="0.7" fill="#212121" d="M305.1,524.3c-3.2,0-5.8-2.6-5.8-5.8s2.6-5.8,5.8-5.8c1.1,0,2.1,0.3,2.9,0.8V26.4l0,0
	c-4.1-0.5-8.7-2.3-12.6-6.3c-4.2-4.3-6.5-9.6-6.7-14.1c-1,2.1-3.1,3.5-5.5,3.5c-3.4,0-6.1-2.9-6.1-6.4c0-0.3,0-0.5,0.1-0.8h-8.9
	c0,0.3,0.1,0.5,0.1,0.8c0,3.5-2.8,6.4-6.1,6.4c-3.4,0-6.1-2.9-6.1-6.4c0-0.3,0-0.5,0.1-0.8h-8.9c0,0.3,0.1,0.5,0.1,0.8
	c0,3.5-2.7,6.4-6.1,6.4c-3.4,0-6.1-2.9-6.1-6.4c0-0.3,0-0.5,0.1-0.8h-8.9c0,0.3,0.1,0.5,0.1,0.8c0,3.5-2.8,6.4-6.1,6.4
	c-3.4,0-6.1-2.9-6.1-6.4c0-0.3,0-0.5,0.1-0.8h-8.9c0,0.3,0.1,0.5,0.1,0.8c0,3.5-2.7,6.4-6.1,6.4c-3.4,0-6.1-2.9-6.1-6.4
	c0-0.3,0.1-0.5,0.1-0.8H184c0,0.3,0.1,0.5,0.1,0.8c0,3.5-2.7,6.4-6.1,6.4c-3.4,0-6.1-2.9-6.1-6.4c0-0.3,0-0.5,0.1-0.8h-8.9
	c0,0.3,0.1,0.5,0.1,0.8c0,3.5-2.7,6.4-6.1,6.4c-3.4,0-6.1-2.9-6.1-6.4c0-0.3,0-0.5,0.1-0.8h-8.9c0,0.3,0.1,0.5,0.1,0.8
	c0,3.5-2.7,6.4-6.1,6.4c-3.4,0-6.1-2.9-6.1-6.4c0-0.3,0-0.5,0.1-0.8h-8.9c0,0.3,0.1,0.5,0.1,0.8c0,3.5-2.8,6.4-6.1,6.4
	c-3.4,0-6.1-2.9-6.1-6.4c0-0.3,0-0.5,0.1-0.8h-8.9c0,0.3,0.1,0.5,0.1,0.8c0,3.5-2.8,6.4-6.2,6.4c-3.4,0-6.1-2.9-6.1-6.4
	c0-0.3,0-0.5,0.1-0.8h-8.9c0,0.3,0.1,0.5,0.1,0.8c0,3.5-2.7,6.4-6.1,6.4c-3.4,0-6.1-2.9-6.1-6.4c0-0.3,0-0.5,0.1-0.8h-8.9
	c0,0.3,0.1,0.5,0.1,0.8c0,3.5-2.8,6.4-6.2,6.4c-3.4,0-6.1-2.9-6.1-6.4c0-0.3,0-0.5,0.1-0.8h-8.9c0,0.3,0.1,0.5,0.1,0.8
	c0,3.5-2.7,6.4-6.1,6.4c-2.7,0-5-1.9-5.8-4.4c0,4.7-2.3,10.3-6.7,15c-3.1,3.2-6.6,5.3-9.9,6.3h0v473.8v13.4v0.2c0.9-0.6,2-1,3.3-1
	c3.2,0,5.8,2.6,5.8,5.8s-2.6,5.8-5.8,5.8c-1.2,0-2.3-0.4-3.3-1v0.1v16.5v96.9h0c3.4,1,6.9,3.1,9.9,6.3c4.4,4.6,6.8,10.3,6.7,15
	c0.8-2.6,3.1-4.4,5.8-4.4c3.4,0,6.1,2.9,6.1,6.4c0,0.3,0,0.5-0.1,0.8h8.9c0-0.3-0.1-0.5-0.1-0.8c0-3.5,2.7-6.4,6.1-6.4
	c3.4,0,6.2,2.9,6.2,6.4c0,0.3,0,0.5-0.1,0.8h8.9c0-0.3-0.1-0.5-0.1-0.8c0-3.5,2.7-6.4,6.1-6.4c3.4,0,6.1,2.9,6.1,6.4
	c0,0.3,0,0.5-0.1,0.8h8.9c0-0.3-0.1-0.5-0.1-0.8c0-3.5,2.7-6.4,6.1-6.4c3.4,0,6.2,2.9,6.2,6.4c0,0.3,0,0.5-0.1,0.8h8.9
	c0-0.3-0.1-0.5-0.1-0.8c0-3.5,2.7-6.4,6.1-6.4c3.4,0,6.1,2.9,6.1,6.4c0,0.3-0.1,0.5-0.1,0.8h8.9c0-0.3-0.1-0.5-0.1-0.8
	c0-3.5,2.8-6.4,6.1-6.4c3.4,0,6.1,2.9,6.1,6.4c0,0.3,0,0.5-0.1,0.8h8.9c0-0.3-0.1-0.5-0.1-0.8c0-3.5,2.7-6.4,6.1-6.4
	c3.4,0,6.1,2.9,6.1,6.4c0,0.3,0,0.5-0.1,0.8h8.9c0-0.3-0.1-0.5-0.1-0.8c0-3.5,2.7-6.4,6.1-6.4c3.4,0,6.1,2.9,6.1,6.4
	c0,0.3,0,0.5-0.1,0.8h8.9c0-0.3-0.1-0.5-0.1-0.8c0-3.5,2.8-6.4,6.1-6.4c3.4,0,6.1,2.9,6.1,6.4c0,0.3,0,0.5-0.1,0.8h8.9
	c0-0.3-0.1-0.5-0.1-0.8c0-3.5,2.7-6.4,6.1-6.4c3.4,0,6.1,2.9,6.1,6.4c0,0.3,0,0.5-0.1,0.8h8.9c0-0.3-0.1-0.5-0.1-0.8
	c0-3.5,2.7-6.4,6.1-6.4c3.4,0,6.1,2.9,6.1,6.4c0,0.3,0,0.5-0.1,0.8h8.9c0-0.3-0.1-0.5-0.1-0.8c0-3.5,2.7-6.4,6.1-6.4
	c3.4,0,6.1,2.9,6.1,6.4c0,0.3,0,0.5-0.1,0.8h8.9c0-0.3-0.1-0.5-0.1-0.8c0-3.5,2.7-6.4,6.1-6.4c2.4,0,4.5,1.4,5.5,3.5
	c0.2-4.5,2.6-9.7,6.7-14.1c3.9-4,8.5-5.8,12.6-6.3l0,0V523.5C307.1,524,306.2,524.3,305.1,524.3z M34,524.4c-3.2,0-5.9-2.6-5.9-5.9
	c0-3.3,2.6-5.9,5.9-5.9c3.2,0,5.8,2.6,5.8,5.9C39.9,521.7,37.3,524.4,34,524.4z M56.8,524.4c-3.2,0-5.8-2.6-5.8-5.9
	c0-3.3,2.6-5.9,5.8-5.9c3.2,0,5.8,2.6,5.8,5.9C62.6,521.7,60,524.4,56.8,524.4z M79.6,524.4c-3.2,0-5.9-2.6-5.9-5.9
	c0-3.3,2.6-5.9,5.9-5.9c3.2,0,5.8,2.6,5.8,5.9C85.4,521.7,82.8,524.4,79.6,524.4z M102.4,524.4c-3.2,0-5.8-2.6-5.8-5.9
	c0-3.3,2.6-5.9,5.8-5.9c3.2,0,5.8,2.6,5.8,5.9C108.2,521.7,105.6,524.4,102.4,524.4z M125.2,524.4c-3.2,0-5.8-2.6-5.8-5.9
	c0-3.3,2.6-5.9,5.8-5.9c3.2,0,5.8,2.6,5.8,5.9C131,521.7,128.4,524.4,125.2,524.4z M148,524.4c-3.2,0-5.9-2.6-5.9-5.9
	c0-3.3,2.6-5.9,5.9-5.9c3.2,0,5.8,2.6,5.8,5.9C153.8,521.7,151.2,524.4,148,524.4z M170.7,524.4c-3.2,0-5.8-2.6-5.8-5.9
	c0-3.3,2.6-5.9,5.8-5.9c3.2,0,5.8,2.6,5.8,5.9C176.6,521.7,174,524.4,170.7,524.4z M193.5,524.4c-3.2,0-5.8-2.6-5.8-5.9
	c0-3.3,2.6-5.9,5.8-5.9c3.2,0,5.8,2.6,5.8,5.9C199.4,521.7,196.8,524.4,193.5,524.4z M216.3,524.4c-3.2,0-5.8-2.6-5.8-5.9
	c0-3.3,2.6-5.9,5.8-5.9c3.2,0,5.9,2.6,5.9,5.9C222.2,521.7,219.6,524.4,216.3,524.4z M237.9,524.4c-3.2,0-5.8-2.6-5.8-5.9
	c0-3.3,2.6-5.9,5.8-5.9c3.2,0,5.9,2.6,5.9,5.9C243.7,521.7,241.1,524.4,237.9,524.4z M260.7,524.4c-3.2,0-5.8-2.6-5.8-5.9
	c0-3.3,2.6-5.9,5.8-5.9c3.2,0,5.9,2.6,5.9,5.9C266.6,521.7,263.9,524.4,260.7,524.4z M283.8,524.4c-3.2,0-5.8-2.6-5.8-5.9
	c0-3.3,2.6-5.9,5.8-5.9c3.2,0,5.9,2.6,5.9,5.9C289.7,521.7,287,524.4,283.8,524.4z"/>
<path fill="#F6F2E6" d="M302.1,521.8c-3.2,0-5.8-2.6-5.8-5.8s2.6-5.8,5.8-5.8c1.1,0,2.1,0.3,2.9,0.8V23.8l0,0
	c-4.1-0.5-8.7-2.3-12.6-6.3c-4.2-4.3-6.5-9.6-6.7-14.1c-1,2.1-3.1,3.5-5.5,3.5c-3.4,0-6.1-2.9-6.1-6.4c0-0.3,0-0.5,0.1-0.8h-8.9
	c0,0.3,0.1,0.5,0.1,0.8c0,3.5-2.8,6.4-6.1,6.4c-3.4,0-6.1-2.9-6.1-6.4c0-0.3,0-0.5,0.1-0.8h-8.9c0,0.3,0.1,0.5,0.1,0.8
	c0,3.5-2.7,6.4-6.1,6.4c-3.4,0-6.1-2.9-6.1-6.4c0-0.3,0-0.5,0.1-0.8h-8.9c0,0.3,0.1,0.5,0.1,0.8c0,3.5-2.8,6.4-6.1,6.4
	c-3.4,0-6.1-2.9-6.1-6.4c0-0.3,0-0.5,0.1-0.8h-8.9c0,0.3,0.1,0.5,0.1,0.8c0,3.5-2.7,6.4-6.1,6.4c-3.4,0-6.1-2.9-6.1-6.4
	c0-0.3,0.1-0.5,0.1-0.8H181c0,0.3,0.1,0.5,0.1,0.8c0,3.5-2.7,6.4-6.1,6.4c-3.4,0-6.1-2.9-6.1-6.4c0-0.3,0-0.5,0.1-0.8h-8.9
	c0,0.3,0.1,0.5,0.1,0.8c0,3.5-2.7,6.4-6.1,6.4c-3.4,0-6.1-2.9-6.1-6.4c0-0.3,0-0.5,0.1-0.8h-8.9c0,0.3,0.1,0.5,0.1,0.8
	c0,3.5-2.7,6.4-6.1,6.4c-3.4,0-6.1-2.9-6.1-6.4c0-0.3,0-0.5,0.1-0.8h-8.9c0,0.3,0.1,0.5,0.1,0.8c0,3.5-2.8,6.4-6.1,6.4
	c-3.4,0-6.1-2.9-6.1-6.4c0-0.3,0-0.5,0.1-0.8h-8.9c0,0.3,0.1,0.5,0.1,0.8c0,3.5-2.8,6.4-6.2,6.4c-3.4,0-6.1-2.9-6.1-6.4
	c0-0.3,0-0.5,0.1-0.8h-8.9c0,0.3,0.1,0.5,0.1,0.8C75.8,4.1,73,7,69.6,7c-3.4,0-6.1-2.9-6.1-6.4c0-0.3,0-0.5,0.1-0.8h-8.9
	c0,0.3,0.1,0.5,0.1,0.8C54.7,4.1,52,7,48.6,7c-3.4,0-6.1-2.9-6.1-6.4c0-0.3,0-0.5,0.1-0.8h-8.9c0,0.3,0.1,0.5,0.1,0.8
	c0,3.5-2.7,6.4-6.1,6.4c-2.7,0-5-1.9-5.8-4.4c0,4.7-2.3,10.3-6.7,15c-3.1,3.2-6.6,5.3-9.9,6.3h0v473.8V511v0.2c0.9-0.6,2-1,3.3-1
	c3.2,0,5.8,2.6,5.8,5.8s-2.6,5.8-5.8,5.8c-1.2,0-2.3-0.4-3.3-1v0.1v16.5v96.9h0c3.4,1,6.9,3.1,9.9,6.3c4.4,4.6,6.8,10.3,6.7,15
	c0.8-2.6,3.1-4.4,5.8-4.4c3.4,0,6.1,2.9,6.1,6.4c0,0.3,0,0.5-0.1,0.8h8.9c0-0.3-0.1-0.5-0.1-0.8c0-3.5,2.7-6.4,6.1-6.4
	c3.4,0,6.2,2.9,6.2,6.4c0,0.3,0,0.5-0.1,0.8h8.9c0-0.3-0.1-0.5-0.1-0.8c0-3.5,2.7-6.4,6.1-6.4c3.4,0,6.1,2.9,6.1,6.4
	c0,0.3,0,0.5-0.1,0.8h8.9c0-0.3-0.1-0.5-0.1-0.8c0-3.5,2.7-6.4,6.1-6.4c3.4,0,6.2,2.9,6.2,6.4c0,0.3,0,0.5-0.1,0.8h8.9
	c0-0.3-0.1-0.5-0.1-0.8c0-3.5,2.7-6.4,6.1-6.4c3.4,0,6.1,2.9,6.1,6.4c0,0.3-0.1,0.5-0.1,0.8h8.9c0-0.3-0.1-0.5-0.1-0.8
	c0-3.5,2.8-6.4,6.1-6.4c3.4,0,6.1,2.9,6.1,6.4c0,0.3,0,0.5-0.1,0.8h8.9c0-0.3-0.1-0.5-0.1-0.8c0-3.5,2.7-6.4,6.1-6.4
	c3.4,0,6.1,2.9,6.1,6.4c0,0.3,0,0.5-0.1,0.8h8.9c0-0.3-0.1-0.5-0.1-0.8c0-3.5,2.7-6.4,6.1-6.4c3.4,0,6.1,2.9,6.1,6.4
	c0,0.3,0,0.5-0.1,0.8h8.9c0-0.3-0.1-0.5-0.1-0.8c0-3.5,2.8-6.4,6.1-6.4c3.4,0,6.1,2.9,6.1,6.4c0,0.3,0,0.5-0.1,0.8h8.9
	c0-0.3-0.1-0.5-0.1-0.8c0-3.5,2.7-6.4,6.1-6.4c3.4,0,6.1,2.9,6.1,6.4c0,0.3,0,0.5-0.1,0.8h8.9c0-0.3-0.1-0.5-0.1-0.8
	c0-3.5,2.7-6.4,6.1-6.4c3.4,0,6.1,2.9,6.1,6.4c0,0.3,0,0.5-0.1,0.8h8.9c0-0.3-0.1-0.5-0.1-0.8c0-3.5,2.7-6.4,6.1-6.4
	c3.4,0,6.1,2.9,6.1,6.4c0,0.3,0,0.5-0.1,0.8h8.9c0-0.3-0.1-0.5-0.1-0.8c0-3.5,2.7-6.4,6.1-6.4c2.4,0,4.5,1.4,5.5,3.5
	c0.2-4.5,2.6-9.7,6.7-14.1c3.9-4,8.5-5.8,12.6-6.3l0,0V521C304.1,521.5,303.2,521.8,302.1,521.8z M31,521.9c-3.2,0-5.9-2.6-5.9-5.9
	c0-3.3,2.6-5.9,5.9-5.9c3.2,0,5.8,2.6,5.8,5.9C36.9,519.2,34.3,521.9,31,521.9z M53.8,521.9c-3.2,0-5.8-2.6-5.8-5.9
	c0-3.3,2.6-5.9,5.8-5.9c3.2,0,5.8,2.6,5.8,5.9C59.6,519.2,57,521.9,53.8,521.9z M76.6,521.9c-3.2,0-5.9-2.6-5.9-5.9
	c0-3.3,2.6-5.9,5.9-5.9c3.2,0,5.8,2.6,5.8,5.9C82.4,519.2,79.8,521.9,76.6,521.9z M99.4,521.9c-3.2,0-5.8-2.6-5.8-5.9
	c0-3.3,2.6-5.9,5.8-5.9c3.2,0,5.8,2.6,5.8,5.9C105.2,519.2,102.6,521.9,99.4,521.9z M122.2,521.9c-3.2,0-5.8-2.6-5.8-5.9
	c0-3.3,2.6-5.9,5.8-5.9c3.2,0,5.8,2.6,5.8,5.9C128,519.2,125.4,521.9,122.2,521.9z M145,521.9c-3.2,0-5.9-2.6-5.9-5.9
	c0-3.3,2.6-5.9,5.9-5.9c3.2,0,5.8,2.6,5.8,5.9C150.8,519.2,148.2,521.9,145,521.9z M167.7,521.9c-3.2,0-5.8-2.6-5.8-5.9
	c0-3.3,2.6-5.9,5.8-5.9c3.2,0,5.8,2.6,5.8,5.9C173.6,519.2,171,521.9,167.7,521.9z M190.5,521.9c-3.2,0-5.8-2.6-5.8-5.9
	c0-3.3,2.6-5.9,5.8-5.9c3.2,0,5.8,2.6,5.8,5.9C196.4,519.2,193.8,521.9,190.5,521.9z M213.3,521.9c-3.2,0-5.8-2.6-5.8-5.9
	c0-3.3,2.6-5.9,5.8-5.9c3.2,0,5.9,2.6,5.9,5.9C219.2,519.2,216.6,521.9,213.3,521.9z M234.9,521.9c-3.2,0-5.8-2.6-5.8-5.9
	c0-3.3,2.6-5.9,5.8-5.9c3.2,0,5.9,2.6,5.9,5.9C240.7,519.2,238.1,521.9,234.9,521.9z M257.7,521.9c-3.2,0-5.8-2.6-5.8-5.9
	c0-3.3,2.6-5.9,5.8-5.9c3.2,0,5.9,2.6,5.9,5.9C263.6,519.2,260.9,521.9,257.7,521.9z M280.8,521.9c-3.2,0-5.8-2.6-5.8-5.9
	c0-3.3,2.6-5.9,5.8-5.9c3.2,0,5.9,2.6,5.9,5.9C286.7,519.2,284,521.9,280.8,521.9z"/>
</svg>
